<?xml version="1.0" encoding="utf-8"?>
<!-- Generator: Adobe Illustrator 22.1.0, SVG Export Plug-In . SVG Version: 6.00 Build 0)  -->
<svg version="1.1" id="Слой_1" xmlns="http://www.w3.org/2000/svg" xmlns:xlink="http://www.w3.org/1999/xlink" x="0px" y="0px"
	 viewBox="0 0 20 20" style="enable-background:new 0 0 20 20;" xml:space="preserve">
<style type="text/css">
	.st0{fill:#F93232;}
</style>
<g>
	<path class="st0" d="M2.9,18.5c-0.5,0-0.9-0.1-1.3-0.4c-0.4-0.2-0.7-0.6-1-1c-0.2-0.4-0.4-0.9-0.3-1.3c0-0.5,0.1-0.9,0.4-1.3
		L7.7,2.7c0,0,0,0,0,0C8,2.3,8.3,2,8.7,1.8c0.8-0.4,1.8-0.4,2.6,0c0.4,0.2,0.7,0.5,1,0.9l7.1,11.8c0.2,0.4,0.4,0.9,0.4,1.3
		c0,0.5-0.1,0.9-0.3,1.3c-0.2,0.4-0.6,0.7-1,1c-0.4,0.2-0.9,0.4-1.3,0.4H2.9z M9.4,3.7L2.4,15.5c-0.1,0.1-0.1,0.2-0.1,0.3
		c0,0.1,0,0.2,0.1,0.3c0.1,0.1,0.1,0.2,0.2,0.2c0.1,0.1,0.2,0.1,0.3,0.1h14.1c0.1,0,0.2,0,0.3-0.1c0.1-0.1,0.2-0.1,0.2-0.2
		c0.1-0.1,0.1-0.2,0.1-0.3c0-0.1,0-0.2-0.1-0.3L10.6,3.7c-0.1-0.1-0.1-0.2-0.2-0.2c-0.2-0.1-0.5-0.1-0.7,0C9.6,3.6,9.5,3.6,9.4,3.7z
		"/>
</g>
<g>
	<path class="st0" d="M10,11.8c-0.6,0-1-0.4-1-1V7.5c0-0.6,0.4-1,1-1s1,0.4,1,1v3.3C11,11.4,10.6,11.8,10,11.8z"/>
</g>
<g>
	<path class="st0" d="M10,15.2c-0.6,0-1-0.4-1-1s0.4-1,1-1h0c0.6,0,1,0.4,1,1S10.6,15.2,10,15.2z"/>
</g>
</svg>
